^E:\LONELYASTRONAUT\PROGRAMMING\C++\LAB5\LAB5DECRYPT\LAB5DECRYPT\MAIN.CPP
/c /ZI /JMC /nologo /W3 /WX- /diagnostics:classic /sdl /Od /Oy- /D _MBCS /Gm- /EHsc /RTC1 /MDd /GS /fp:precise /permissive- /Zc:wchar_t /Zc:forScope /Zc:inline /Fo"DEBUG\\" /Fd"DEBUG\VC141.PDB" /Gd /TP /analyze- /FC E:\LONELYASTRONAUT\PROGRAMMING\C++\LAB5\LAB5DECRYPT\LAB5DECRYPT\MAIN.CPP
^E:\LONELYASTRONAUT\PROGRAMMING\C++\LAB5\LAB5DECRYPT\LAB5DECRYPT\LIST.CPP
/c /ZI /JMC /nologo /W3 /WX- /diagnostics:classic /sdl /Od /Oy- /D _MBCS /Gm- /EHsc /RTC1 /MDd /GS /fp:precise /permissive- /Zc:wchar_t /Zc:forScope /Zc:inline /Fo"DEBUG\\" /Fd"DEBUG\VC141.PDB" /Gd /TP /analyze- /FC E:\LONELYASTRONAUT\PROGRAMMING\C++\LAB5\LAB5DECRYPT\LAB5DECRYPT\LIST.CPP
^E:\LONELYASTRONAUT\PROGRAMMING\C++\LAB5\LAB5DECRYPTV2\LAB5DECRYPT\LIST.CPP
/c /ZI /JMC /nologo /W3 /WX- /diagnostics:classic /sdl /Od /Oy- /D _CRT_SECURE_NO_WARNINGS /D _MBCS /D _MBCS /Gm- /EHsc /RTC1 /MDd /GS /fp:precise /permissive- /Zc:wchar_t /Zc:forScope /Zc:inline /Fo"DEBUG\\" /Fd"DEBUG\VC141.PDB" /Gd /TP /analyze- /FC E:\LONELYASTRONAUT\PROGRAMMING\C++\LAB5\LAB5DECRYPTV2\LAB5DECRYPT\LIST.CPP
^E:\LONELYASTRONAUT\PROGRAMMING\C++\LAB5\LAB5DECRYPTV2\LAB5DECRYPT\MAIN.CPP
/c /ZI /JMC /nologo /W3 /WX- /diagnostics:classic /sdl /Od /Oy- /D _CRT_SECURE_NO_WARNINGS /D _MBCS /D _MBCS /Gm- /EHsc /RTC1 /MDd /GS /fp:precise /permissive- /Zc:wchar_t /Zc:forScope /Zc:inline /Fo"DEBUG\\" /Fd"DEBUG\VC141.PDB" /Gd /TP /analyze- /FC E:\LONELYASTRONAUT\PROGRAMMING\C++\LAB5\LAB5DECRYPTV2\LAB5DECRYPT\MAIN.CPP
^E:\LONELYASTRONAUT\PROGRAMMING\C++\DONTTOUCHITIFITWORKSFINE\LAB5DECRYPT_SOLUTION\LAB5DECRYPT\LIST.CPP
/c /ZI /JMC /nologo /W3 /WX- /diagnostics:classic /sdl /Od /Oy- /D _CRT_SECURE_NO_WARNINGS /D _MBCS /D _MBCS /Gm- /EHsc /RTC1 /MDd /GS /fp:precise /permissive- /Zc:wchar_t /Zc:forScope /Zc:inline /Fo"DEBUG\\" /Fd"DEBUG\VC141.PDB" /Gd /TP /analyze- /FC E:\LONELYASTRONAUT\PROGRAMMING\C++\DONTTOUCHITIFITWORKSFINE\LAB5DECRYPT_SOLUTION\LAB5DECRYPT\LIST.CPP
^E:\LONELYASTRONAUT\PROGRAMMING\C++\DONTTOUCHITIFITWORKSFINE\LAB5DECRYPT_SOLUTION\LAB5DECRYPT\MAIN.CPP
/c /ZI /JMC /nologo /W3 /WX- /diagnostics:classic /sdl /Od /Oy- /D _CRT_SECURE_NO_WARNINGS /D _MBCS /D _MBCS /Gm- /EHsc /RTC1 /MDd /GS /fp:precise /permissive- /Zc:wchar_t /Zc:forScope /Zc:inline /Fo"DEBUG\\" /Fd"DEBUG\VC141.PDB" /Gd /TP /analyze- /FC E:\LONELYASTRONAUT\PROGRAMMING\C++\DONTTOUCHITIFITWORKSFINE\LAB5DECRYPT_SOLUTION\LAB5DECRYPT\MAIN.CPP
^E:\LONELYASTRONAUT\PROGRAMMING\C++\DONTTOUCHITIFITWORKSFINE\LAB5DECRYPT_SOLUTION\LAB5DECRYPT\TOFILE.CPP
/c /ZI /JMC /nologo /W3 /WX- /diagnostics:classic /sdl /Od /Oy- /D _CRT_SECURE_NO_WARNINGS /D _MBCS /D _MBCS /Gm- /EHsc /RTC1 /MDd /GS /fp:precise /permissive- /Zc:wchar_t /Zc:forScope /Zc:inline /Fo"DEBUG\\" /Fd"DEBUG\VC141.PDB" /Gd /TP /analyze- /FC E:\LONELYASTRONAUT\PROGRAMMING\C++\DONTTOUCHITIFITWORKSFINE\LAB5DECRYPT_SOLUTION\LAB5DECRYPT\TOFILE.CPP
^E:\LONELYASTRONAUT\PROGRAMMING\C++\DONTTOUCHITIFITWORKSFINE\LAB5DECRYPT_SOLUTION\LAB5DECRYPT\TREE.CPP
/c /ZI /JMC /nologo /W3 /WX- /diagnostics:classic /sdl /Od /Oy- /D _CRT_SECURE_NO_WARNINGS /D _MBCS /D _MBCS /Gm- /EHsc /RTC1 /MDd /GS /fp:precise /permissive- /Zc:wchar_t /Zc:forScope /Zc:inline /Fo"DEBUG\\" /Fd"DEBUG\VC141.PDB" /Gd /TP /analyze- /FC E:\LONELYASTRONAUT\PROGRAMMING\C++\DONTTOUCHITIFITWORKSFINE\LAB5DECRYPT_SOLUTION\LAB5DECRYPT\TREE.CPP
^E:\LONELYASTRONAUT\PROGRAMMING\C++\DONTTOUCHITIFITWORKSFINE\LAB5DECRYPT_SOLUTION_COMPLETED\LAB5DECRYPT\MAIN.CPP
/c /ZI /JMC /nologo /W3 /WX- /diagnostics:classic /sdl /Od /Oy- /D _CRT_SECURE_NO_WARNINGS /D _MBCS /D _MBCS /Gm- /EHsc /RTC1 /MDd /GS /fp:precise /permissive- /Zc:wchar_t /Zc:forScope /Zc:inline /Fo"DEBUG\\" /Fd"DEBUG\VC141.PDB" /Gd /TP /analyze- /FC E:\LONELYASTRONAUT\PROGRAMMING\C++\DONTTOUCHITIFITWORKSFINE\LAB5DECRYPT_SOLUTION_COMPLETED\LAB5DECRYPT\MAIN.CPP
^E:\LONELYASTRONAUT\PROGRAMMING\C++\DONTTOUCHITIFITWORKSFINE\LAB5DECRYPT_SOLUTION_COMPLETED\LAB5DECRYPT\TREE.CPP
/c /ZI /JMC /nologo /W3 /WX- /diagnostics:classic /sdl /Od /Oy- /D _CRT_SECURE_NO_WARNINGS /D _MBCS /D _MBCS /Gm- /EHsc /RTC1 /MDd /GS /fp:precise /permissive- /Zc:wchar_t /Zc:forScope /Zc:inline /Fo"DEBUG\\" /Fd"DEBUG\VC141.PDB" /Gd /TP /analyze- /FC E:\LONELYASTRONAUT\PROGRAMMING\C++\DONTTOUCHITIFITWORKSFINE\LAB5DECRYPT_SOLUTION_COMPLETED\LAB5DECRYPT\TREE.CPP
^E:\LONELYASTRONAUT\PROGRAMMING\C++\DONTTOUCHITIFITWORKSFINE\LAB5DECRYPT_SOLUTION_COMPLETED\LAB5DECRYPT\TOFILE.CPP
/c /ZI /JMC /nologo /W3 /WX- /diagnostics:classic /sdl /Od /Oy- /D _CRT_SECURE_NO_WARNINGS /D _MBCS /D _MBCS /Gm- /EHsc /RTC1 /MDd /GS /fp:precise /permissive- /Zc:wchar_t /Zc:forScope /Zc:inline /Fo"DEBUG\\" /Fd"DEBUG\VC141.PDB" /Gd /TP /analyze- /FC E:\LONELYASTRONAUT\PROGRAMMING\C++\DONTTOUCHITIFITWORKSFINE\LAB5DECRYPT_SOLUTION_COMPLETED\LAB5DECRYPT\TOFILE.CPP
