﻿  Source.cpp
  Создание кода
  0 of 15 functions ( 0.0%) were compiled, the rest were copied from previous compilation.
    0 functions were new in current compilation
    0 functions had inline decision re-evaluated but remain unchanged
  Создание кода завершено
  APK_Lab2.vcxproj -> D:\Programming\C++\APK_Lab2\Release\APK_Lab2.exe
