^D:\PROGRAMMING\C++\APK_LAB2\APK_LAB2\SOURCE.CPP
D:\PROGRAMMING\C++\APK_LAB2\APK_LAB2\DEBUG\VC142.PDB
D:\PROGRAMMING\C++\APK_LAB2\APK_LAB2\DEBUG\VC142.IDB
D:\PROGRAMMING\C++\APK_LAB2\APK_LAB2\DEBUG\SOURCE.OBJ
